{
"name": "nli-nli_vufind1",
"version": "1.0.0",
"author": "nlireland",
"summary": "nli_vufind1.",
"license": "Apache 2.0",
"source": "git://bitbucket.org:nlireland/puppet_module-nli_vufind1.git",
"dependencies": []
}